Overview of ggDoE • ggDoE
…
or alternatively,

lambda_plot(model, showplot=FALSE)
#> # A tibble: 41 × 7
#>    lambda     A     B      C  `A:B` `A:C` `B:C`
#>     <dbl> <dbl> <dbl>  <dbl>  <dbl> <dbl> <dbl>
#>  1   -2    1.69 0.850 -1.07  -0.851 1.07  0.945
#>  2   -1.9  1.77 0.843 -1.07  -0.844 1.07  0.946
#>  3   -1.8  1.86 0.835 -1.06  -0.837 1.06  0.947
#>  4   -1.7  1.97 0.828 -1.05  -0.830 1.05  0.949
#>  5   -1.6  2.09 0.820 -1.04  -0.823 1.04  0.951
#>  6   -1.5  2.23 0.813 -1.02  -0.816 1.03  0.954
#>  7   -1.4  2.38 0.805 -1.01  -0.811 1.01  0.958
#>  8   -1.3  2.57 0.797 -0.984 -0.806 0.986 0.962
#>  9   -1.2  2.78 0.789 -0.957 -0.802 0.961 0.966
#> 10   -1.1  3.02 0.780 -0.925 -0.800 0.931 0.971
#> # … with 31 more rows
…
